…
    ## [1] 368.0213

``` r
BIC(logis)
```

    ## [1] 473.7588

``` r
tlogis = tidy(logis)
options(scipen = 999)
tlogis
```

    ## # A tibble: 27 × 5
    ##    term                     estimate std.error statistic p.value
    ##    <chr>                       <dbl>     <dbl>     <dbl>   <dbl>
    ##  1 (Intercept)               -15.7     712.      -0.0221   0.982
    ##  2 sexcatmale                 -0.439     0.303   -1.45     0.147
    ##  3 racecatasian               12.9     712.       0.0182   0.986
    ##  4 racecatblack               13.2     712.       0.0185   0.985
    ##  5 racecatother               13.5     712.       0.0189   0.985
    ##  6 racecatwhite               14.3     712.       0.0201   0.984
    ##  7 incomecat$35,000-$49,999    0.218     0.485    0.449    0.653
    ##  8 incomecat$50,000-$74,999   -0.191     0.493   -0.387    0.698
    ##  9 incomecat$75,000-$99,999   -0.746     0.657   -1.13     0.256
    ## 10 incomecatover $100,000     -0.435     0.439   -0.992    0.321
    ## # … with 17 more rows
…
    ## [1] 368.0213

``` r
BIC(multi)
```

    ## [1] 473.7588

``` r
tmulti = tidy(multi)
options(scipen = 999)
tmulti
```

    ## # A tibble: 27 × 6
    ##    y.level term                     estimate std.error statistic   p.value
    ##    <chr>   <chr>                       <dbl>     <dbl>     <dbl>     <dbl>
    ##  1 1       (Intercept)               -15.4       0.718   -21.4   7.54e-102
    ##  2 1       sexcatmale                 -0.439     0.303    -1.45  1.47e-  1
    ##  3 1       racecatasian               12.6       0.906    13.9   5.11e- 44
    ##  4 1       racecatblack               12.9       0.584    22.1   6.00e-108
    ##  5 1       racecatother               13.2       0.937    14.1   6.92e- 45
    ##  6 1       racecatwhite               14.0       0.421    33.3   1.89e-242
    ##  7 1       incomecat$35,000-$49,999    0.218     0.485     0.449 6.53e-  1
    ##  8 1       incomecat$50,000-$74,999   -0.191     0.493    -0.387 6.98e-  1
    ##  9 1       incomecat$75,000-$99,999   -0.746     0.657    -1.13  2.56e-  1
    ## 10 1       incomecatover $100,000     -0.435     0.439    -0.992 3.21e-  1
    ## # … with 17 more rows
…
    ## [1] 935.4766

``` r
BIC(multi)
```

    ## [1] 1358.426

``` r
tmulti = tidy(multi)
options(scipen = 999)
tmulti
```

    ## # A tibble: 108 × 6
    ##    y.level term                     estimate std.error statistic     p.value
    ##    <chr>   <chr>                       <dbl>     <dbl>     <dbl>       <dbl>
    ##  1 daily   (Intercept)               -94.1    1.11e+ 0 -8.47e+ 1 0          
    ##  2 daily   sexcatmale                 -0.372  8.93e- 1 -4.17e- 1 0.677      
    ##  3 daily   racecatasian              -51.8    1.45e-10 -3.56e+11 0          
    ##  4 daily   racecatblack                3.97   9.73e- 1  4.08e+ 0 0.0000451  
    ##  5 daily   racecatother              -24.5    4.76e-11 -5.14e+11 0          
    ##  6 daily   racecatwhite                4.85   9.23e- 1  5.26e+ 0 0.000000146
    ##  7 daily   incomecat$35,000-$49,999   -0.321  1.29e+ 0 -2.50e- 1 0.803      
    ##  8 daily   incomecat$50,000-$74,999   -0.860  1.35e+ 0 -6.39e- 1 0.523      
    ##  9 daily   incomecat$75,000-$99,999   -1.07   1.65e+ 0 -6.49e- 1 0.516      
    ## 10 daily   incomecatover $100,000     -2.81   1.62e+ 0 -1.73e+ 0 0.0835     
    ## # … with 98 more rows
…
